{
  "company": 0,
  "condition": 0,
  "contractTotal": 0.0,
  "dateTime": null,
  "decorationOrder": null,
  "decorationOrderId": null,
  "errorCode": 0,
  "errorMsg": null,
  "locale": "zh_CN",
  "paging": {
    "data": [
      {
        "apartmentType": null,
        "autoId": 55,
        "backOrderContent": "",
        "backOrderName": "",
        "backOrderPhone": "",
        "businessDepartment": "ERP开发部",
        "company": 1,
        "contractCode": null,
        "contractTime": null,
        "contractUserId": null,
        "createTime": "2016-08-13",
        "createUser": null,
        "createUserId": null,
        "customer": {
          "address": "",
          "approveStatus": 0,
          "balance": 0.0,
          "customerId": "1501040011",
          "customerName": "白先生",
          "customerNamePYAB": "[bxs]",
          "customerNamePYAll": "[baixiansheng]",
          "email": "-",
          "gender": "男",
          "id": 98,
          "materialBalance": 0.0,
          "phone": "-",
          "projectBalance": 0.0,
          "qq": "-",
          "relationshipType": "普通客户",
          "wechat": "-",
          "zhenglinBalance": 0.0
        },
        "designDepartment": "设计中心十部\/设计中心十五部",
        "designRegion": null,
        "designer": "白雪峰\/白旭坤",
        "designerId": "FL-00186",
        "designerPhone": null,
        "discount": null,
        "freeArea": 0.0,
        "houseArea": 111.0,
        "houseClass": "别墅",
        "houseNumber": "4#4-5-7",
        "houseType": "现房",
        "inspection": null,
        "inspectionId": null,
        "measureTime": null,
        "notSalesmanContent": "",
        "notSalesmanName": "",
        "notSalesmanPhone": "",
        "notSalesmanRate": 0.03,
        "orderId": "1607290003",
        "orderTotalPrice": 60000.0,
        "orderType": 1,
        "otherStatus": 0,
        "paymentStatus": "首付款",
        "projectStatus": "等待施工",
        "salesman": "白添宇",
        "salesmanId": "FL-00479",
        "salesmanPhone": null,
        "salesmanType": "守园",
        "status": "定金",
        "supervisor": null,
        "supervisorId": null,
        "supervisorPhone": null,
        "versionId": null,
        "versionName": null,
        "village": {
          "buildingNameRule": null,
          "cityProper": {
            "city": null,
            "cityProperId": "R_01",
            "cityProperName": "皇姑",
            "cpId": 6
          },
          "count": 24,
          "deliveryTime": null,
          "developer": "",
          "salesPhone": "",
          "status": 0,
          "vId": 24,
          "villageContent": "",
          "villageId": "P_0010",
          "villageName": "保利心语三期",
          "villagePinYinAB": null,
          "villagePinYinAll": null,
          "x": 123.35900115966797,
          "y": 41.80569839477539
        }
      },
      {
        "apartmentType": null,
        "autoId": 42,
        "backOrderContent": "",
        "backOrderName": "",
        "backOrderPhone": "",
        "businessDepartment": "市场营销一部\/ERP开发部",
        "company": 1,
        "contractCode": null,
        "contractTime": null,
        "contractUserId": null,
        "createTime": "2016-07-11",
        "createUser": null,
        "createUserId": null,
        "customer": {
          "address": "",
          "approveStatus": 0,
          "balance": 10000.0,
          "customerId": "1510220065",
          "customerName": "赵先生",
          "customerNamePYAB": "[zxs]",
          "customerNamePYAll": "[zhaoxiansheng]",
          "email": "-",
          "gender": "男",
          "id": 53418,
          "materialBalance": 0.0,
          "phone": "-",
          "projectBalance": 0.0,
          "qq": "-",
          "relationshipType": "普通客户",
          "wechat": "-",
          "zhenglinBalance": 0.0
        },
        "designDepartment": "设计中心十部\/浑南分公司",
        "designRegion": null,
        "designer": "白雪峰\/白金",
        "designerId": "FL-00186",
        "designerPhone": null,
        "discount": null,
        "freeArea": 11.0,
        "houseArea": 111.0,
        "houseClass": "二手",
        "houseNumber": "A#1-4-5",
        "houseType": "期房",
        "inspection": null,
        "inspectionId": null,
        "measureTime": null,
        "notSalesmanContent": "",
        "notSalesmanName": "",
        "notSalesmanPhone": "",
        "notSalesmanRate": 0.03,
        "orderId": "1606290003",
        "orderTotalPrice": 100.0,
        "orderType": 1,
        "otherStatus": 0,
        "paymentStatus": null,
        "projectStatus": "铲大白",
        "salesman": "李宁\/白添宇",
        "salesmanId": "FL-00638",
        "salesmanPhone": null,
        "salesmanType": "守园",
        "status": "已签约",
        "supervisor": null,
        "supervisorId": null,
        "supervisorPhone": null,
        "versionId": null,
        "versionName": null,
        "village": {
          "buildingNameRule": null,
          "cityProper": {
            "city": null,
            "cityProperId": "R_25",
            "cityProperName": "彰武",
            "cpId": 54
          },
          "count": 8,
          "deliveryTime": null,
          "developer": "222",
          "salesPhone": "",
          "status": 0,
          "vId": 6,
          "villageContent": "字母数字#A或B或C-×-×",
          "villageId": "P_0001",
          "villageName": "万达广场一期",
          "villagePinYinAB": null,
          "villagePinYinAll": null,
          "x": 123.36799621582031,
          "y": 41.78799819946289
        }
      },
      {
        "apartmentType": null,
        "autoId": 37,
        "backOrderContent": "",
        "backOrderName": "",
        "backOrderPhone": "",
        "businessDepartment": "瓦工部",
        "company": 1,
        "contractCode": "FLJ-1606030003-TY10",
        "contractTime": "2016-06-10",
        "contractUserId": "FL-00479",
        "createTime": "2016-06-03",
        "createUser": null,
        "createUserId": null,
        "customer": {
          "address": "",
          "approveStatus": 0,
          "balance": 10000.0,
          "customerId": "1510220065",
          "customerName": "赵先生",
          "customerNamePYAB": "[zxs]",
          "customerNamePYAll": "[zhaoxiansheng]",
          "email": "-",
          "gender": "男",
          "id": 53418,
          "materialBalance": 0.0,
          "phone": "-",
          "projectBalance": 0.0,
          "qq": "-",
          "relationshipType": "普通客户",
          "wechat": "-",
          "zhenglinBalance": 0.0
        },
        "designDepartment": "设计中心十部",
        "designRegion": null,
        "designer": "白雪峰",
        "designerId": "FL-00186",
        "designerPhone": null,
        "discount": null,
        "freeArea": 0.0,
        "houseArea": 165.0,
        "houseClass": "",
        "houseNumber": "3#1-2-1",
        "houseType": "期房",
        "inspection": null,
        "inspectionId": null,
        "measureTime": null,
        "notSalesmanContent": "",
        "notSalesmanName": "",
        "notSalesmanPhone": "",
        "notSalesmanRate": 0.0,
        "orderId": "1606030003",
        "orderTotalPrice": 60000.0,
        "orderType": 1,
        "otherStatus": 0,
        "paymentStatus": "首付二期款",
        "projectStatus": "水电力",
        "salesman": "陈长青",
        "salesmanId": "FL-01373",
        "salesmanPhone": null,
        "salesmanType": "守园",
        "status": "已签约",
        "supervisor": null,
        "supervisorId": null,
        "supervisorPhone": null,
        "versionId": null,
        "versionName": null,
        "village": {
          "buildingNameRule": null,
          "cityProper": {
            "city": null,
            "cityProperId": "R_05",
            "cityProperName": "沈北",
            "cpId": 14
          },
          "count": 6,
          "deliveryTime": null,
          "developer": null,
          "salesPhone": null,
          "status": 0,
          "vId": 634,
          "villageContent": "",
          "villageId": "P_0319",
          "villageName": "中铁人杰水岸一期",
          "villagePinYinAB": null,
          "villagePinYinAll": null,
          "x": 123.40399932861328,
          "y": 41.9463005065918
        }
      },
      {
        "apartmentType": null,
        "autoId": 36,
        "backOrderContent": "",
        "backOrderName": "",
        "backOrderPhone": "",
        "businessDepartment": "市场营销一部",
        "company": 1,
        "contractCode": null,
        "contractTime": "2016-06-20",
        "contractUserId": "FL-00479",
        "createTime": "2016-06-02",
        "createUser": null,
        "createUserId": null,
        "customer": {
          "address": "",
          "approveStatus": 0,
          "balance": 10000.0,
          "customerId": "1510220065",
          "customerName": "赵先生",
          "customerNamePYAB": "[zxs]",
          "customerNamePYAll": "[zhaoxiansheng]",
          "email": "-",
          "gender": "男",
          "id": 53418,
          "materialBalance": 0.0,
          "phone": "-",
          "projectBalance": 0.0,
          "qq": "-",
          "relationshipType": "普通客户",
          "wechat": "-",
          "zhenglinBalance": 0.0
        },
        "designDepartment": "设计中心十部",
        "designRegion": null,
        "designer": "白雪峰",
        "designerId": "FL-00186",
        "designerPhone": null,
        "discount": null,
        "freeArea": 0.0,
        "houseArea": 100.0,
        "houseClass": "清水",
        "houseNumber": "A#1-4-1",
        "houseType": "期房",
        "inspection": null,
        "inspectionId": null,
        "measureTime": null,
        "notSalesmanContent": "",
        "notSalesmanName": "",
        "notSalesmanPhone": "",
        "notSalesmanRate": 0.0,
        "orderId": "1606020003",
        "orderTotalPrice": 7600.0,
        "orderType": 1,
        "otherStatus": 0,
        "paymentStatus": "二期款",
        "projectStatus": "铲大白",
        "salesman": "李宁",
        "salesmanId": "FL-00638",
        "salesmanPhone": null,
        "salesmanType": "守园",
        "status": "已签约",
        "supervisor": null,
        "supervisorId": null,
        "supervisorPhone": null,
        "versionId": null,
        "versionName": null,
        "village": {
          "buildingNameRule": null,
          "cityProper": {
            "city": null,
            "cityProperId": "R_25",
            "cityProperName": "彰武",
            "cpId": 54
          },
          "count": 8,
          "deliveryTime": null,
          "developer": "222",
          "salesPhone": "",
          "status": 0,
          "vId": 6,
          "villageContent": "字母数字#A或B或C-×-×",
          "villageId": "P_0001",
          "villageName": "万达广场一期",
          "villagePinYinAB": null,
          "villagePinYinAll": null,
          "x": 123.36799621582031,
          "y": 41.78799819946289
        }
      },
      {
        "apartmentType": null,
        "autoId": 35,
        "backOrderContent": "",
        "backOrderName": "",
        "backOrderPhone": "",
        "businessDepartment": "市场营销一部",
        "company": 1,
        "contractCode": null,
        "contractTime": "2016-06-29",
        "contractUserId": "FL-00479",
        "createTime": "2016-05-18",
        "createUser": null,
        "createUserId": null,
        "customer": {
          "address": "",
          "approveStatus": 0,
          "balance": 0.0,
          "customerId": "1501040009",
          "customerName": "李女士",
          "customerNamePYAB": "[lns, lrs]",
          "customerNamePYAll": "[linvshi, lirushi]",
          "email": "-",
          "gender": "男",
          "id": 95,
          "materialBalance": 0.0,
          "phone": "-",
          "projectBalance": 0.0,
          "qq": "-",
          "relationshipType": "普通客户",
          "wechat": "-",
          "zhenglinBalance": 0.0
        },
        "designDepartment": "设计中心十部\/设计中心九部",
        "designRegion": null,
        "designer": "白雪峰\/李博文",
        "designerId": "FL-00186",
        "designerPhone": null,
        "discount": null,
        "freeArea": 0.0,
        "houseArea": 160.0,
        "houseClass": "清水",
        "houseNumber": "8#1-2-1",
        "houseType": "期房",
        "inspection": null,
        "inspectionId": null,
        "measureTime": null,
        "notSalesmanContent": "",
        "notSalesmanName": "",
        "notSalesmanPhone": "",
        "notSalesmanRate": 0.03,
        "orderId": "1605180005",
        "orderTotalPrice": 80000.0,
        "orderType": 1,
        "otherStatus": 0,
        "paymentStatus": "首付款",
        "projectStatus": "铲大白",
        "salesman": "李宁",
        "salesmanId": "FL-00638",
        "salesmanPhone": null,
        "salesmanType": "守园",
        "status": "重签合同",
        "supervisor": null,
        "supervisorId": null,
        "supervisorPhone": null,
        "versionId": null,
        "versionName": null,
        "village": {
          "buildingNameRule": null,
          "cityProper": {
            "city": null,
            "cityProperId": "R_02",
            "cityProperName": "铁西",
            "cpId": 8
          },
          "count": 34,
          "deliveryTime": null,
          "developer": null,
          "salesPhone": null,
          "status": 0,
          "vId": 52,
          "villageContent": "",
          "villageId": "P_0024",
          "villageName": "鑫丰雍景豪城 ",
          "villagePinYinAB": null,
          "villagePinYinAll": null,
          "x": 123.38899993896484,
          "y": 41.81660079956055
        }
      },
      {
        "apartmentType": null,
        "autoId": 24,
        "backOrderContent": "",
        "backOrderName": "",
        "backOrderPhone": "",
        "businessDepartment": "市场营销一部",
        "company": 2,
        "contractCode": null,
        "contractTime": null,
        "contractUserId": null,
        "createTime": "2016-03-25",
        "createUser": null,
        "createUserId": null,
        "customer": {
          "address": "",
          "approveStatus": 0,
          "balance": 10000.0,
          "customerId": "1510220065",
          "customerName": "赵先生",
          "customerNamePYAB": "[zxs]",
          "customerNamePYAll": "[zhaoxiansheng]",
          "email": "-",
          "gender": "男",
          "id": 53418,
          "materialBalance": 0.0,
          "phone": "-",
          "projectBalance": 0.0,
          "qq": "-",
          "relationshipType": "普通客户",
          "wechat": "-",
          "zhenglinBalance": 0.0
        },
        "designDepartment": "设计中心十部",
        "designRegion": null,
        "designer": "白雪峰",
        "designerId": "FL-00186",
        "designerPhone": null,
        "discount": null,
        "freeArea": 0.0,
        "houseArea": 111.0,
        "houseClass": "清水",
        "houseNumber": "B1#A-5-7",
        "houseType": "期房",
        "inspection": null,
        "inspectionId": null,
        "measureTime": null,
        "notSalesmanContent": "",
        "notSalesmanName": "",
        "notSalesmanPhone": "",
        "notSalesmanRate": 0.0,
        "orderId": "1603250003",
        "orderTotalPrice": 56000.0,
        "orderType": 1,
        "otherStatus": 0,
        "paymentStatus": null,
        "projectStatus": "水电力",
        "salesman": "李宁",
        "salesmanId": "FL-00638",
        "salesmanPhone": null,
        "salesmanType": "守园",
        "status": "合同终止",
        "supervisor": null,
        "supervisorId": null,
        "supervisorPhone": null,
        "versionId": null,
        "versionName": null,
        "village": {
          "buildingNameRule": null,
          "cityProper": {
            "city": null,
            "cityProperId": "R_25",
            "cityProperName": "彰武",
            "cpId": 54
          },
          "count": 8,
          "deliveryTime": null,
          "developer": "222",
          "salesPhone": "",
          "status": 0,
          "vId": 6,
          "villageContent": "字母数字#A或B或C-×-×",
          "villageId": "P_0001",
          "villageName": "万达广场一期",
          "villagePinYinAB": null,
          "villagePinYinAll": null,
          "x": 123.36799621582031,
          "y": 41.78799819946289
        }
      },
      {
        "apartmentType": null,
        "autoId": 23,
        "backOrderContent": "",
        "backOrderName": "",
        "backOrderPhone": "",
        "businessDepartment": "1918大宅设计一部",
        "company": 2,
        "contractCode": null,
        "contractTime": null,
        "contractUserId": null,
        "createTime": "2016-03-24",
        "createUser": null,
        "createUserId": null,
        "customer": {
          "address": "",
          "approveStatus": 0,
          "balance": 50000.0,
          "customerId": "1501040012",
          "customerName": "biubiu",
          "customerNamePYAB": "[biubiu]",
          "customerNamePYAll": "[biubiu]",
          "email": "-",
          "gender": "女",
          "id": 99,
          "materialBalance": 0.0,
          "phone": "-",
          "projectBalance": 0.0,
          "qq": "-",
          "relationshipType": "普通客户",
          "wechat": "-",
          "zhenglinBalance": 0.0
        },
        "designDepartment": "设计中心十部\/1918大宅设计一部",
        "designRegion": null,
        "designer": "白雪峰\/陈亮",
        "designerId": "FL-00186",
        "designerPhone": null,
        "discount": null,
        "freeArea": 0.0,
        "houseArea": 87.0,
        "houseClass": "",
        "houseNumber": "B2",
        "houseType": "期房",
        "inspection": null,
        "inspectionId": null,
        "measureTime": null,
        "notSalesmanContent": "",
        "notSalesmanName": "",
        "notSalesmanPhone": "",
        "notSalesmanRate": 0.0,
        "orderId": "1603240009",
        "orderTotalPrice": 9000.0,
        "orderType": 1,
        "otherStatus": 0,
        "paymentStatus": "首付二期款",
        "projectStatus": "等待施工",
        "salesman": "陈亮",
        "salesmanId": "FL-023340",
        "salesmanPhone": null,
        "salesmanType": "守园",
        "status": "废单",
        "supervisor": null,
        "supervisorId": null,
        "supervisorPhone": null,
        "versionId": null,
        "versionName": null,
        "village": {
          "buildingNameRule": null,
          "cityProper": {
            "city": null,
            "cityProperId": "R_25",
            "cityProperName": "彰武",
            "cpId": 54
          },
          "count": 8,
          "deliveryTime": null,
          "developer": "222",
          "salesPhone": "",
          "status": 0,
          "vId": 6,
          "villageContent": "字母数字#A或B或C-×-×",
          "villageId": "P_0001",
          "villageName": "万达广场一期",
          "villagePinYinAB": null,
          "villagePinYinAll": null,
          "x": 123.36799621582031,
          "y": 41.78799819946289
        }
      },
      {
        "apartmentType": null,
        "autoId": 22,
        "backOrderContent": "",
        "backOrderName": "",
        "backOrderPhone": "",
        "businessDepartment": "抚顺分公司",
        "company": 2,
        "contractCode": null,
        "contractTime": null,
        "contractUserId": null,
        "createTime": "2016-03-24",
        "createUser": null,
        "createUserId": null,
        "customer": {
          "address": "",
          "approveStatus": 0,
          "balance": 10000.0,
          "customerId": "1510220065",
          "customerName": "赵先生",
          "customerNamePYAB": "[zxs]",
          "customerNamePYAll": "[zhaoxiansheng]",
          "email": "-",
          "gender": "男",
          "id": 53418,
          "materialBalance": 0.0,
          "phone": "-",
          "projectBalance": 0.0,
          "qq": "-",
          "relationshipType": "普通客户",
          "wechat": "-",
          "zhenglinBalance": 0.0
        },
        "designDepartment": "设计中心十部\/设计中心三部",
        "designRegion": null,
        "designer": "白雪峰\/杜若平",
        "designerId": "FL-00186",
        "designerPhone": null,
        "discount": null,
        "freeArea": 0.0,
        "houseArea": 88.0,
        "houseClass": "清水",
        "houseNumber": "15#2-6-4",
        "houseType": "期房",
        "inspection": null,
        "inspectionId": null,
        "measureTime": null,
        "notSalesmanContent": "",
        "notSalesmanName": "",
        "notSalesmanPhone": "",
        "notSalesmanRate": 0.0,
        "orderId": "1603240007",
        "orderTotalPrice": 0.0,
        "orderType": 1,
        "otherStatus": 0,
        "paymentStatus": "设计费",
        "projectStatus": "瓦工",
        "salesman": "柏权娜",
        "salesmanId": "FL-00639",
        "salesmanPhone": null,
        "salesmanType": "守园",
        "status": "废单",
        "supervisor": null,
        "supervisorId": null,
        "supervisorPhone": null,
        "versionId": null,
        "versionName": null,
        "village": {
          "buildingNameRule": null,
          "cityProper": {
            "city": null,
            "cityProperId": "R_01",
            "cityProperName": "皇姑",
            "cpId": 6
          },
          "count": 24,
          "deliveryTime": null,
          "developer": "",
          "salesPhone": "",
          "status": 0,
          "vId": 24,
          "villageContent": "",
          "villageId": "P_0010",
          "villageName": "保利心语三期",
          "villagePinYinAB": null,
          "villagePinYinAll": null,
          "x": 123.35900115966797,
          "y": 41.80569839477539
        }
      },
      {
        "apartmentType": null,
        "autoId": 21,
        "backOrderContent": "",
        "backOrderName": "",
        "backOrderPhone": "",
        "businessDepartment": "驻店导购部",
        "company": 2,
        "contractCode": null,
        "contractTime": null,
        "contractUserId": null,
        "createTime": "2016-03-24",
        "createUser": null,
        "createUserId": null,
        "customer": {
          "address": "",
          "approveStatus": 0,
          "balance": 15000.0,
          "customerId": "1501040001",
          "customerName": "环境",
          "customerNamePYAB": "[hj]",
          "customerNamePYAll": "[huanjing]",
          "email": "-",
          "gender": "男",
          "id": 83,
          "materialBalance": 0.0,
          "phone": "-",
          "projectBalance": 0.0,
          "qq": "-",
          "relationshipType": "普通客户",
          "wechat": "-",
          "zhenglinBalance": 0.0
        },
        "designDepartment": "设计中心十部\/设计中心二部",
        "designRegion": null,
        "designer": "白雪峰\/班丽华",
        "designerId": "FL-00186",
        "designerPhone": null,
        "discount": null,
        "freeArea": 0.0,
        "houseArea": 111.0,
        "houseClass": "",
        "houseNumber": "97#1-1-2",
        "houseType": "期房",
        "inspection": null,
        "inspectionId": null,
        "measureTime": null,
        "notSalesmanContent": "",
        "notSalesmanName": "",
        "notSalesmanPhone": "",
        "notSalesmanRate": 0.0,
        "orderId": "1603240005",
        "orderTotalPrice": 0.0,
        "orderType": 1,
        "otherStatus": 0,
        "paymentStatus": null,
        "projectStatus": "等待施工",
        "salesman": "奥威狮-金妍",
        "salesmanId": "FL-ZC-ZD-100",
        "salesmanPhone": null,
        "salesmanType": "守园",
        "status": "废单",
        "supervisor": null,
        "supervisorId": null,
        "supervisorPhone": null,
        "versionId": null,
        "versionName": null,
        "village": {
          "buildingNameRule": null,
          "cityProper": {
            "city": null,
            "cityProperId": "R_02",
            "cityProperName": "铁西",
            "cpId": 8
          },
          "count": 3,
          "deliveryTime": null,
          "developer": null,
          "salesPhone": null,
          "status": 0,
          "vId": 14,
          "villageContent": "",
          "villageId": "P_0005",
          "villageName": "万科金域国际",
          "villagePinYinAB": null,
          "villagePinYinAll": null,
          "x": 123.3740005493164,
          "y": 41.802799224853516
        }
      },
      {
        "apartmentType": null,
        "autoId": 20,
        "backOrderContent": "",
        "backOrderName": "",
        "backOrderPhone": "",
        "businessDepartment": "设计中心六部",
        "company": 2,
        "contractCode": null,
        "contractTime": null,
        "contractUserId": null,
        "createTime": "2016-03-24",
        "createUser": null,
        "createUserId": null,
        "customer": {
          "address": "",
          "approveStatus": 0,
          "balance": 0.0,
          "customerId": "1501110089",
          "customerName": "唐女士",
          "customerNamePYAB": "[tns, trs]",
          "customerNamePYAll": "[tangnvshi, tangrushi]",
          "email": "-",
          "gender": "男",
          "id": 516,
          "materialBalance": 0.0,
          "phone": "-",
          "projectBalance": 0.0,
          "qq": "-",
          "relationshipType": "普通客户",
          "wechat": "-",
          "zhenglinBalance": 0.0
        },
        "designDepartment": "设计中心十部\/本溪分公司",
        "designRegion": null,
        "designer": "白雪峰\/丁红",
        "designerId": "FL-00186",
        "designerPhone": null,
        "discount": null,
        "freeArea": 0.0,
        "houseArea": 123.0,
        "houseClass": "",
        "houseNumber": "9#1-1-1",
        "houseType": "期房",
        "inspection": null,
        "inspectionId": null,
        "measureTime": null,
        "notSalesmanContent": "",
        "notSalesmanName": "",
        "notSalesmanPhone": "",
        "notSalesmanRate": 0.0,
        "orderId": "1603240003",
        "orderTotalPrice": 60000.0,
        "orderType": 1,
        "otherStatus": 0,
        "paymentStatus": null,
        "projectStatus": "等待施工",
        "salesman": "陈锐",
        "salesmanId": "FL-00119",
        "salesmanPhone": null,
        "salesmanType": "守园",
        "status": "废单",
        "supervisor": null,
        "supervisorId": null,
        "supervisorPhone": null,
        "versionId": null,
        "versionName": null,
        "village": {
          "buildingNameRule": null,
          "cityProper": {
            "city": null,
            "cityProperId": "R_02",
            "cityProperName": "铁西",
            "cpId": 8
          },
          "count": 12,
          "deliveryTime": null,
          "developer": null,
          "salesPhone": null,
          "status": 0,
          "vId": 74,
          "villageContent": "",
          "villageId": "P_0035",
          "villageName": "鑫丰熙区府1号 ",
          "villagePinYinAB": null,
          "villagePinYinAll": null,
          "x": 123.38099670410156,
          "y": 41.806400299072266
        }
      }
    ],
    "noPage": 0,
    "page": 1,
    "rows": 10,
    "totalPage": 2,
    "totalRecords": 17
  },
  "paymentValue": 0.0,
  "refundValue": 0.0,
  "roleId": "R_50",
  "timeType": 0,
  "userId": "FL_03051",
  "userName": "刘婷婷"
}